module gitlab.com/zerok/csvgen

go 1.16

require (
	github.com/rs/zerolog v1.23.0
	github.com/spf13/pflag v1.0.5
	github.com/stretchr/testify v1.7.0
	golang.org/x/text v0.3.3
	gopkg.in/yaml.v3 v3.0.0-20210107192922-496545a6307b // indirect
)
